<?xml version="1.0" standalone="no"?>
<!DOCTYPE svg PUBLIC "-//W3C//DTD SVG 1.1//EN" "http://www.w3.org/Graphics/SVG/1.1/DTD/svg11.dtd" >
<svg xmlns="http://www.w3.org/2000/svg" width="100%" height="100%">
<metadata>
Created by FontXChange 20110222 at Thu Feb 26 15:29:39 2015
 By Daniel Meade
HTF Gothama (c) 2000 The Hoefler Type Foundry, Inc. Info: www.typography.com
</metadata>
<defs>
<font id="Gotham-Book" horiz-adv-x="500" >
  <font-face 
    font-family="Gotham"
    font-weight="500"
    font-stretch="normal"
    units-per-em="1000"
    panose-1="2 0 6 3 0 0 0 0 0 0"
    ascent="800"
    descent="-200"
    x-height="517"
    cap-height="700"
    bbox="-68 -164.478 1158 907"
    underline-thickness="20"
    underline-position="-133"
    unicode-range="U+0001-2122"
  />
<missing-glyph horiz-adv-x="364" 
d="M33 0v666h265v-666h-265zM66 33h199v600h-199v-600z" />
    <glyph glyph-name=".notdef" horiz-adv-x="364" 
d="M33 0v666h265v-666h-265zM66 33h199v600h-199v-600z" />
    <glyph glyph-name="uni0000" horiz-adv-x="0" 
 />
    <glyph glyph-name="uni0000" horiz-adv-x="0" 
 />
    <glyph glyph-name="nonmarkingreturn" horiz-adv-x="333" 
 />
    <glyph glyph-name="uni0001" horiz-adv-x="812" 
d="M129 316h-75v72h75v312h243q163 0 267.5 -99.5t104.5 -249.5t-104.5 -250.5t-267.5 -100.5h-243v316zM208 388h210v-72h-210v-243h164q130 0 210 78.5t80 197.5t-80 198.5t-210 79.5h-164v-239z" />
    <glyph glyph-name="uni0002" horiz-adv-x="633" 
d="M322 615l-128 -63l-36 47l131 61l-50 70h92l26 -39l99 48l35 -47l-102 -47l101 -149q45 -66 66.5 -122t21.5 -122q0 -109 -73.5 -186.5t-192.5 -77.5q-110 0 -184 75.5t-74 182.5q0 105 69.5 172.5t167.5 67.5q84 0 162 -55zM499 244q0 75 -54.5 128t-135.5 53
q-80 0 -128.5 -52t-48.5 -130q0 -75 53 -131t132 -56q80 0 131 55t51 133z" />
    <glyph glyph-name="uni0003" horiz-adv-x="649" 
d="M602 0h-473v301l-75 -22v73l75 23v325h78v-301l216 66v-74l-216 -65v-253h395v-73z" />
    <glyph glyph-name="uni0004" horiz-adv-x="323" 
d="M200 343v-343h-76v321l-76 -24v75l76 23v335h76v-312l76 24v-75z" />
    <glyph glyph-name="uni0005" horiz-adv-x="640" 
d="M160 525q0 -53 39.5 -83t150.5 -54q119 -26 173.5 -72.5t54.5 -126.5q0 -90 -67 -144.5t-172 -54.5q-161 0 -286 112l49 58q56 -51 112.5 -75t127.5 -24q70 0 113 33.5t43 86.5q0 52 -38 82t-144 52q-124 27 -179.5 72.5t-55.5 130.5q0 84 65 138t165 54q139 0 246 -86
l-46 -61q-93 76 -202 76q-67 0 -108 -32.5t-41 -81.5zM325 826l75 67h64l-106 -131h-68l-106 131h66z" />
    <glyph glyph-name="uni0006" horiz-adv-x="498" 
d="M441 145q0 -72 -52 -113.5t-132 -41.5q-56 0 -113.5 20.5t-100.5 55.5l39 55q88 -66 179 -66q47 0 77 22.5t30 59.5v2q0 35 -32.5 54t-96.5 37q-39 11 -62 20t-52 25.5t-43 41.5t-14 59v2q0 66 49.5 107t126.5 41q100 0 186 -57l-35 -58q-77 50 -153 50q-45 0 -72.5 -21
t-27.5 -54v-2q0 -14 8 -26t18 -20t31.5 -17t34.5 -13t41 -13q29 -9 48.5 -16t44 -19.5t39 -27t24.5 -36.5t10 -49v-2zM253 659l75 67h64l-106 -131h-68l-106 131h66z" />
    <glyph glyph-name="uni0007" horiz-adv-x="716" 
d="M398 278v-278h-80v277l-291 423h96l236 -350l238 350h92zM391 757h-62l95 145l80 -37z" />
    <glyph glyph-name="uni0008" horiz-adv-x="591" 
d="M555 517l-217 -534q-33 -79 -73 -112.5t-99 -33.5q-56 0 -110 26l26 61q37 -19 81 -19q35 0 59 21.5t47 75.5l-235 515h85l188 -431l166 431h82zM329 591h-62l95 145l80 -37z" />
    <glyph glyph-name="uni000B" horiz-adv-x="673" 
d="M623 357q0 -109 -78.5 -170t-196.5 -61h-170v-126h-79v700h79v-120h183q119 0 190.5 -60t71.5 -163zM543 354q0 74 -50.5 113.5t-137.5 39.5h-177v-309h173q87 0 139.5 43t52.5 113z" />
    <glyph glyph-name="uni000C" horiz-adv-x="664" 
d="M608 259q0 -122 -74 -196t-173 -74q-122 0 -198 110v-259h-77v890h77v-317q78 115 198 115q99 0 173 -73.5t74 -195.5zM529 258q0 90 -53 145.5t-129 55.5q-75 0 -131 -56.5t-56 -143.5q0 -88 56 -144.5t131 -56.5q78 0 130 54t52 146z" />
    <glyph glyph-name="uni000E" horiz-adv-x="693" 
d="M520 629h-438v71h546v-53l-454 -576h454v-71h-561v53zM352 826l75 67h64l-106 -131h-68l-106 131h66z" />
    <glyph glyph-name="uni000F" horiz-adv-x="556" 
d="M399 452h-331v65h436v-49l-344 -403h344v-65h-448v49zM288 659l75 67h64l-106 -131h-68l-106 131h66z" />
    <glyph glyph-name="space" unicode=" " horiz-adv-x="300" 
 />
    <glyph glyph-name="exclam" unicode="!" horiz-adv-x="271" 
d="M91 700h90v-57l-24 -445h-43l-23 445v57zM182 0h-92v105h92v-105z" />
    <glyph glyph-name="quotedbl" unicode="&#x22;" horiz-adv-x="440" 
d="M260 428l31 272h92v-5l-81 -267h-42zM65 428l30 272h93v-5l-81 -267h-42z" />
    <glyph glyph-name="numbersign" unicode="#" horiz-adv-x="700" 
d="M654 458h-120l-37 -212h118v-69h-129l-31 -177h-70l30 177h-190l-31 -177h-70l30 177h-109v69h121l37 212h-119v69h130l30 173h70l-29 -173h190l30 173h70l-29 -173h108v-69zM463 458h-190l-36 -212h190z" />
    <glyph glyph-name="dollar" unicode="$" horiz-adv-x="636" 
d="M569 189q0 -80 -59 -131.5t-154 -57.5v-98h-64v100q-129 12 -236 103l45 60q94 -84 194 -95v250q-112 27 -162.5 72t-50.5 123q0 77 59 128.5t151 56.5v58h64v-60q100 -9 191 -80l-43 -60q-68 58 -151 72v-246q114 -26 165 -72t51 -123zM295 398v235q-62 -2 -99 -34
t-37 -79q0 -46 28.5 -74t107.5 -48zM492 184q0 47 -29.5 75t-109.5 47v-239q63 3 101 35t38 82z" />
    <glyph glyph-name="percent" unicode="%" horiz-adv-x="834" 
d="M369 530q0 -74 -44.5 -127t-114.5 -53q-69 0 -113.5 52.5t-44.5 125.5q0 74 45 127t115 53q69 0 113 -52.5t44 -125.5zM709 700l-513 -700h-72l514 700h71zM781 172q0 -74 -44.5 -127t-114.5 -53q-69 0 -113 52.5t-44 125.5q0 74 44.5 127t114.5 53q69 0 113 -52t44 -126
zM303 528q0 53 -27 88.5t-66 35.5q-41 0 -66 -35t-25 -87q0 -53 27 -88.5t66 -35.5q40 0 65.5 35t25.5 87zM715 170q0 53 -27 88.5t-66 35.5q-40 0 -65.5 -35t-25.5 -87q0 -53 27 -88.5t66 -35.5q41 0 66 35t25 87z" />
    <glyph glyph-name="ampersand" unicode="&#x26;" horiz-adv-x="696" 
d="M664 32l-60 -46l-110 113q-101 -109 -229 -109q-96 0 -158 54.5t-62 142.5q0 137 169 203q-37 43 -53.5 78.5t-16.5 76.5q0 71 51.5 119t133.5 48q73 0 121.5 -46t48.5 -113q0 -125 -165 -183l160 -163q45 65 84 156l65 -30q-53 -113 -101 -176zM425 549q0 43 -28 70.5
t-71 27.5q-47 0 -76.5 -29t-29.5 -73q0 -31 15 -59t55 -71q135 46 135 134zM446 148l-187 193q-67 -25 -100.5 -64.5t-33.5 -86.5q0 -57 41 -95t105 -38q92 0 175 91z" />
    <glyph glyph-name="quotesingle" unicode="'" horiz-adv-x="245" 
d="M65 428l30 272h94v-5l-81 -267h-43z" />
    <glyph glyph-name="parenleft" unicode="(" horiz-adv-x="434" 
d="M378 664q-232 -148 -232 -377t232 -377l-33 -51q-277 156 -277 428t277 428z" />
    <glyph glyph-name="parenright" unicode=")" horiz-adv-x="434" 
d="M56 664l33 51q277 -156 277 -428t-277 -428l-33 51q232 148 232 377t-232 377z" />
    <glyph glyph-name="asterisk" unicode="*" horiz-adv-x="430" 
d="M361 496l-27 -47l-103 73l10 -125h-52l10 125l-103 -73l-27 47l116 53l-116 54l27 46l103 -72l-10 125h52l-10 -125l103 72l27 -46l-116 -54z" />
    <glyph glyph-name="plus" unicode="+" horiz-adv-x="640" 
d="M283 388v206h74v-206h208v-72h-208v-206h-74v206h-208v72h208z" />
    <glyph glyph-name="comma" unicode="," horiz-adv-x="245" 
d="M46 -87q73 26 67 87h-36v105h92v-90q0 -60 -26.5 -92t-84.5 -45z" />
    <glyph glyph-name="hyphen" unicode="-" horiz-adv-x="408" 
d="M343 260h-278v81h278v-81z" />
    <glyph glyph-name="period" unicode="." horiz-adv-x="245" 
d="M169 0h-92v105h92v-105z" />
    <glyph glyph-name="slash" unicode="/" horiz-adv-x="508" 
d="M443 798h71l-464 -926h-71z" />
    <glyph glyph-name="zero" unicode="0" horiz-adv-x="715" 
d="M653 351q0 -152 -82 -257.5t-214 -105.5t-213.5 104.5t-81.5 256.5t82.5 257.5t214.5 105.5t213 -104.5t81 -256.5zM571 349q0 120 -59.5 205.5t-154.5 85.5t-154 -84.5t-59 -204.5t60 -205.5t155 -85.5t153.5 84.5t58.5 204.5z" />
    <glyph glyph-name="one" unicode="1" horiz-adv-x="358" 
d="M28 646l171 59h58v-705h-78v623l-132 -41z" />
    <glyph glyph-name="two" unicode="2" horiz-adv-x="599" 
d="M307 639q-57 0 -100.5 -29t-87.5 -91l-58 42q51 76 108 112.5t144 36.5q95 0 156 -56t61 -143q0 -73 -39 -130t-138 -143l-187 -166h371v-72h-489v61l254 224q82 73 114 120.5t32 99.5q0 60 -41 97t-100 37z" />
    <glyph glyph-name="three" unicode="3" horiz-adv-x="613" 
d="M429 629h-342v71h447v-58l-220 -244q101 -8 166 -57.5t65 -140.5q0 -93 -67.5 -152.5t-166.5 -59.5q-165 0 -261 125l57 51q85 -104 205 -104q65 0 109 38t44 99q0 65 -53.5 100.5t-142.5 35.5h-45l-16 47z" />
    <glyph glyph-name="four" unicode="4" horiz-adv-x="671" 
d="M439 705h69v-473h109v-66h-109v-166h-76v166h-369l-20 57zM432 232v361l-294 -361h294z" />
    <glyph glyph-name="five" unicode="5" horiz-adv-x="612" 
d="M99 359l20 341h403v-73h-334l-15 -224q71 31 138 31q105 0 173.5 -58.5t68.5 -156.5q0 -103 -70 -167t-180 -64q-139 0 -250 111l52 57q99 -96 199 -96q75 0 122 44t47 112q0 66 -48.5 107t-125.5 41q-72 0 -147 -40z" />
    <glyph glyph-name="six" unicode="6" horiz-adv-x="647" 
d="M559 632l-46 -61q-82 69 -165 69q-94 0 -150 -86t-55 -223q73 107 199 107q101 0 171.5 -60t70.5 -156q0 -101 -72 -167.5t-179 -66.5q-113 0 -184 71q-45 45 -66.5 107t-21.5 165q0 165 78.5 273t212.5 108q109 0 207 -80zM503 219q0 66 -48 108.5t-123 42.5
q-76 0 -125.5 -46t-49.5 -108q0 -68 50 -113t127 -45q76 0 122.5 46t46.5 115z" />
    <glyph glyph-name="seven" unicode="7" horiz-adv-x="596" 
d="M68 628v72h475v-59l-318 -641h-88l316 628h-385z" />
    <glyph glyph-name="eight" unicode="8" horiz-adv-x="630" 
d="M578 190q0 -89 -75 -144.5t-188 -55.5t-188 55.5t-75 143.5q0 61 39 105t105 68q-120 55 -120 162q0 80 70.5 133t168.5 53t168.5 -53t70.5 -133q0 -107 -120 -162q66 -25 105 -68.5t39 -103.5zM475 519q0 52 -46 87t-114 35q-69 0 -114.5 -34.5t-45.5 -87.5
q0 -57 46 -93t114 -36t114 36t46 93zM498 191q0 59 -52.5 96.5t-130.5 37.5t-130.5 -37.5t-52.5 -96.5q0 -56 49.5 -94t133.5 -38t133.5 38t49.5 94z" />
    <glyph glyph-name="nine" unicode="9" horiz-adv-x="647" 
d="M586 368q0 -168 -81 -274t-210 -106q-112 0 -216 86l46 61q85 -75 172 -75q94 0 152 86t56 221q-70 -112 -198 -112q-108 0 -176 61t-68 157q0 102 71 170.5t181 68.5q112 0 184 -72q87 -87 87 -272zM490 482q0 68 -50 114t-128 46q-76 0 -122 -48t-46 -117
q0 -68 48 -111t124 -43q77 0 125.5 47.5t48.5 111.5z" />
    <glyph glyph-name="colon" unicode=":" horiz-adv-x="255" 
d="M174 412h-92v105h92v-105zM174 0h-92v105h92v-105z" />
    <glyph glyph-name="semicolon" unicode=";" horiz-adv-x="255" 
d="M174 412h-92v105h92v-105zM51 -87q73 26 67 87h-36v105h92v-90q0 -60 -26.5 -92t-84.5 -45z" />
    <glyph glyph-name="less" unicode="&#x3c;" horiz-adv-x="640" 
d="M72 385l469 233v-77l-385 -188l385 -189v-78l-469 233v66z" />
    <glyph glyph-name="equal" unicode="=" horiz-adv-x="640" 
d="M90 506h460v-74h-460v74zM90 272h460v-74h-460v74z" />
    <glyph glyph-name="greater" unicode="&#x3e;" horiz-adv-x="640" 
d="M568 319l-469 -233v77l385 188l-385 189v78l469 -233v-66z" />
    <glyph glyph-name="question" unicode="?" horiz-adv-x="537" 
d="M210 365q96 2 147.5 39.5t51.5 102.5q0 56 -40 93.5t-106 37.5q-101 0 -182 -94l-51 49q96 116 235 116q100 0 162 -56t62 -143q0 -89 -57.5 -140t-150.5 -64l-10 -108h-51l-15 162zM291 0h-92v105h92v-105z" />
    <glyph glyph-name="at" unicode="@" horiz-adv-x="980" 
d="M927 316q0 -119 -55.5 -182t-131.5 -63q-53 0 -89 22.5t-51 61.5q-71 -84 -165 -84q-75 0 -127 50.5t-52 131.5q0 103 71.5 176t159.5 73q99 0 146 -83l13 69l67 -9l-40 -227q-7 -39 -7 -61q0 -38 22.5 -59.5t62.5 -21.5q58 0 99 53t41 153q0 142 -116.5 252t-283.5 110
q-171 0 -286.5 -118t-115.5 -286q0 -169 116 -285.5t294 -116.5q133 0 249 68l16 -27q-123 -75 -265 -75q-190 0 -318 127.5t-128 308.5q0 180 127.5 309t310.5 129q181 0 308.5 -118.5t127.5 -277.5zM614 313q0 55 -34.5 91t-87.5 36q-65 0 -114.5 -53t-49.5 -129
q0 -58 34 -91.5t88 -33.5q64 0 114 54.5t50 125.5z" />
    <glyph glyph-name="A" unicode="A" horiz-adv-x="790" 
d="M432 705l319 -705h-85l-82 185h-381l-83 -185h-81l319 705h74zM553 256l-159 357l-160 -357h319z" />
    <glyph glyph-name="B" unicode="B" horiz-adv-x="722" 
d="M397 700q104 0 166 -47.5t62 -127.5q0 -115 -111 -163q150 -45 150 -170q0 -90 -69 -141t-185 -51h-311v700h298zM384 388q73 0 117 32.5t44 93.5q0 53 -40.5 84t-114.5 31h-213v-241h207zM412 71q80 0 126 33.5t46 92.5q0 58 -47.5 89.5t-138.5 31.5h-221v-247h235z" />
    <glyph glyph-name="C" unicode="C" horiz-adv-x="738" 
d="M699 111q-60 -61 -125 -92t-155 -31q-151 0 -251 104t-100 257q0 152 100.5 257.5t253.5 105.5q89 0 152 -28t121 -83l-54 -58q-101 96 -220 96q-116 0 -193.5 -82.5t-77.5 -205.5t78 -206.5t193 -83.5q68 0 120 25t106 76z" />
    <glyph glyph-name="D" unicode="D" horiz-adv-x="782" 
d="M714 351q0 -150 -104.5 -250.5t-267.5 -100.5h-243v700h243q163 0 267.5 -99.5t104.5 -249.5zM632 349q0 119 -80 198.5t-210 79.5h-164v-554h164q130 0 210 78.5t80 197.5z" />
    <glyph glyph-name="E" unicode="E" horiz-adv-x="670" 
d="M605 700v-72h-427v-239h382v-72h-382v-245h432v-72h-511v700h506z" />
    <glyph glyph-name="F" unicode="F" horiz-adv-x="656" 
d="M602 700v-73h-424v-250h379v-72h-379v-305h-79v700h503z" />
    <glyph glyph-name="G" unicode="G" horiz-adv-x="784" 
d="M705 95q-120 -107 -281 -107t-258.5 103t-97.5 258q0 149 98.5 256t252.5 107q84 0 144.5 -23t116.5 -70l-51 -60q-92 80 -213 80q-115 0 -190.5 -84t-75.5 -204q0 -128 75.5 -210t201.5 -82q116 0 202 70v174h-213v71h289v-279z" />
    <glyph glyph-name="H" unicode="H" horiz-adv-x="760" 
d="M582 315h-404v-315h-79v700h79v-311h404v311h79v-700h-79v315z" />
    <glyph glyph-name="I" unicode="I" horiz-adv-x="291" 
d="M106 700h79v-700h-79v700z" />
    <glyph glyph-name="J" unicode="J" horiz-adv-x="553" 
d="M465 232q0 -117 -60 -179.5t-158 -62.5q-140 0 -216 124l57 49q34 -51 70.5 -75.5t89.5 -24.5q61 0 99 43.5t38 124.5v469h80v-468z" />
    <glyph glyph-name="K" unicode="K" horiz-adv-x="719" 
d="M382 394l313 -394h-99l-269 339l-149 -151v-188h-79v700h79v-418l402 418h102z" />
    <glyph glyph-name="L" unicode="L" horiz-adv-x="619" 
d="M99 0v700h79v-627h394v-73h-473z" />
    <glyph glyph-name="M" unicode="M" horiz-adv-x="868" 
d="M690 567l-255 -375h-4l-255 374v-566h-77v700h80l255 -382l255 382h80v-700h-79v567z" />
    <glyph glyph-name="N" unicode="N" horiz-adv-x="790" 
d="M614 139v561h77v-700h-63l-452 574v-574h-77v700h74z" />
    <glyph glyph-name="O" unicode="O" horiz-adv-x="850" 
d="M782 351q0 -149 -101 -256t-257 -107t-256 106t-100 255t101 256t257 107t256 -106t100 -255zM700 349q0 121 -78.5 205.5t-197.5 84.5t-196.5 -83.5t-77.5 -204.5t78.5 -205.5t197.5 -84.5t196.5 83.5t77.5 204.5z" />
    <glyph glyph-name="P" unicode="P" horiz-adv-x="668" 
d="M623 477q0 -109 -78.5 -169.5t-196.5 -60.5h-170v-247h-79v700h262q119 0 190.5 -60t71.5 -163zM543 474q0 74 -50.5 113.5t-137.5 39.5h-177v-308h173q87 0 139.5 42.5t52.5 112.5z" />
    <glyph glyph-name="Q" unicode="Q" horiz-adv-x="850" 
d="M698 115l93 -77l-54 -59l-92 84q-96 -75 -221 -75q-156 0 -256 106t-100 255t101 256t257 107t256 -106t100 -255q0 -136 -84 -236zM587 114l-130 111l53 59l129 -117q61 79 61 182q0 121 -78.5 205.5t-197.5 84.5t-196.5 -83.5t-77.5 -204.5t78.5 -205.5t197.5 -84.5
q92 0 161 53z" />
    <glyph glyph-name="R" unicode="R" horiz-adv-x="723" 
d="M678 0h-97l-203 272h-200v-272h-79v700h301q115 0 184 -57t69 -152q0 -85 -52 -137t-138 -68zM573 488q0 65 -47 102t-132 37h-216v-284h215q80 0 130 39t50 106z" />
    <glyph glyph-name="S" unicode="S" horiz-adv-x="640" 
d="M160 525q0 -53 39.5 -83t150.5 -54q119 -26 173.5 -72.5t54.5 -126.5q0 -90 -67 -144.5t-172 -54.5q-161 0 -286 112l49 58q56 -51 112.5 -75t127.5 -24q70 0 113 33.5t43 86.5q0 52 -38 82t-144 52q-124 27 -179.5 72.5t-55.5 130.5q0 84 65 138t165 54q139 0 246 -86
l-46 -61q-93 76 -202 76q-67 0 -108 -32.5t-41 -81.5z" />
    <glyph glyph-name="T" unicode="T" horiz-adv-x="648" 
d="M364 627v-627h-80v627h-235v73h550v-73h-235z" />
    <glyph glyph-name="U" unicode="U" horiz-adv-x="759" 
d="M671 700v-401q0 -150 -79 -230t-213 -80q-133 0 -212 79.5t-79 224.5v407h79v-402q0 -113 56.5 -174.5t157.5 -61.5q99 0 155 59t56 172v407h79z" />
    <glyph glyph-name="V" unicode="V" horiz-adv-x="750" 
d="M376 97l250 603h85l-301 -705h-70l-301 705h88z" />
    <glyph glyph-name="W" unicode="W" horiz-adv-x="1107" 
d="M331 117l192 585h65l192 -585l200 583h83l-250 -705h-67l-192 568l-193 -568h-66l-250 705h86z" />
    <glyph glyph-name="X" unicode="X" horiz-adv-x="725" 
d="M679 0h-94l-224 301l-224 -301h-91l269 357l-259 343h93l215 -286l213 286h92l-259 -342z" />
    <glyph glyph-name="Y" unicode="Y" horiz-adv-x="716" 
d="M398 278v-278h-80v277l-291 423h96l236 -350l238 350h92z" />
    <glyph glyph-name="Z" unicode="Z" horiz-adv-x="693" 
d="M520 629h-438v71h546v-53l-454 -576h454v-71h-561v53z" />
    <glyph glyph-name="bracketleft" unicode="[" horiz-adv-x="439" 
d="M380 700v-60h-213v-710h213v-60h-286v830h286z" />
    <glyph glyph-name="backslash" unicode="\" horiz-adv-x="508" 
d="M65 798l464 -926h-71l-464 926h71z" />
    <glyph glyph-name="bracketright" unicode="]" horiz-adv-x="439" 
d="M59 700h286v-830h-286v60h214v710h-214v60z" />
    <glyph glyph-name="asciicircum" unicode="^" 
d="M249 647l-118 -154h-66l155 209h60l155 -209h-68z" />
    <glyph glyph-name="underscore" unicode="_" horiz-adv-x="600" 
d="M-2 -97h604v-63h-604v63z" />
    <glyph glyph-name="grave" unicode="`" 
d="M257 595l-113 108l80 37l95 -145h-62z" />
    <glyph glyph-name="a" unicode="a" horiz-adv-x="579" 
d="M273 456q-74 0 -157 -38l-23 63q94 43 188 43q106 0 163 -53t57 -155v-316h-74v78q-68 -89 -187 -89q-78 0 -135.5 43t-57.5 119q0 81 60 124.5t161 43.5q81 0 159 -22v18q0 69 -40 105t-114 36zM276 262q-72 0 -111.5 -29t-39.5 -79q0 -48 37.5 -76t92.5 -28
q72 0 122.5 39.5t50.5 100.5v50q-76 22 -152 22z" />
    <glyph glyph-name="b" unicode="b" horiz-adv-x="664" 
d="M608 259q0 -122 -74 -196t-173 -74q-122 0 -198 110v-99h-77v730h77v-317q78 115 198 115q99 0 173 -73.5t74 -195.5zM529 258q0 90 -53 145.5t-129 55.5q-75 0 -131 -56.5t-56 -143.5q0 -88 56 -144.5t131 -56.5q78 0 130 54t52 146z" />
    <glyph glyph-name="c" unicode="c" horiz-adv-x="571" 
d="M530 88q-90 -100 -211 -100q-112 0 -188.5 79t-76.5 190q0 112 76.5 191.5t188.5 79.5q120 0 207 -92l-51 -54q-74 78 -157 78q-78 0 -131.5 -58.5t-53.5 -142.5q0 -85 54.5 -143.5t135.5 -58.5q86 0 158 77z" />
    <glyph glyph-name="d" unicode="d" horiz-adv-x="664" 
d="M578 0h-77v104q-78 -115 -198 -115q-99 0 -173 73.5t-74 195.5t74 196t173 74q122 0 198 -110v312h77v-730zM504 259q0 87 -56 143.5t-131 56.5q-78 0 -130 -54t-52 -146q0 -90 53 -145.5t129 -55.5q75 0 131 56.5t56 144.5z" />
    <glyph glyph-name="e" unicode="e" horiz-adv-x="592" 
d="M132 230q8 -81 59.5 -128t122.5 -47q93 0 163 73l48 -43q-87 -97 -213 -97q-109 0 -183.5 75.5t-74.5 194.5q0 113 71 191.5t177 78.5q111 0 176 -78t65 -196q0 -15 -1 -24h-410zM132 287h333q-6 76 -49 126t-116 50q-67 0 -113.5 -50t-54.5 -126z" />
    <glyph glyph-name="f" unicode="f" horiz-adv-x="367" 
d="M191 515h164v-66h-163v-449h-77v449h-71v67h71v45q0 84 40.5 128.5t115.5 44.5q49 0 85 -13v-67q-45 13 -75 13q-90 0 -90 -110v-42z" />
    <glyph glyph-name="g" unicode="g" horiz-adv-x="664" 
d="M578 90q0 -123 -70.5 -187.5t-192.5 -64.5q-131 0 -235 72l35 60q91 -66 199 -66q87 0 137.5 47.5t50.5 136.5v61q-82 -109 -203 -109q-98 0 -170.5 67t-72.5 176t73 177t170 68q124 0 202 -104v93h77v-427zM504 284q0 78 -56.5 127t-133.5 49q-76 0 -127.5 -48
t-51.5 -127q0 -78 52.5 -127.5t126.5 -49.5q76 0 133 49.5t57 126.5z" />
    <glyph glyph-name="h" unicode="h" horiz-adv-x="616" 
d="M163 296v-296h-77v730h77v-303q61 101 177 101q92 0 145 -56.5t53 -150.5v-321h-77v302q0 73 -37.5 114.5t-105.5 41.5q-67 0 -111 -45t-44 -117z" />
    <glyph glyph-name="i" unicode="i" horiz-adv-x="263" 
d="M176 630h-88v85h88v-85zM170 0h-77v517h77v-517z" />
    <glyph glyph-name="j" unicode="j" horiz-adv-x="263" 
d="M176 630h-88v85h88v-85zM93 517h77v-547q0 -67 -33 -100t-93 -33q-27 0 -48 5v63q18 -3 38 -3q59 0 59 69v546z" />
    <glyph glyph-name="k" unicode="k" horiz-adv-x="569" 
d="M321 295l224 -295h-92l-185 241l-105 -106v-135h-77v730h77v-504l279 291h96z" />
    <glyph glyph-name="l" unicode="l" horiz-adv-x="263" 
d="M170 0h-77v730h77v-730z" />
    <glyph glyph-name="m" unicode="m" horiz-adv-x="951" 
d="M496 425q67 103 182 103q89 0 140.5 -56t51.5 -152v-320h-77v302q0 75 -35.5 115.5t-98.5 40.5q-61 0 -102 -43t-41 -117v-298h-76v304q0 72 -35.5 113t-97.5 41t-103 -46t-41 -117v-295h-77v517h77v-87q65 98 167 98q116 0 166 -103z" />
    <glyph glyph-name="n" unicode="n" horiz-adv-x="616" 
d="M163 296v-296h-77v517h77v-90q61 101 177 101q92 0 145 -56.5t53 -150.5v-321h-77v302q0 73 -37.5 114.5t-105.5 41.5q-67 0 -111 -45t-44 -117z" />
    <glyph glyph-name="o" unicode="o" horiz-adv-x="646" 
d="M593 259q0 -112 -78 -191.5t-193 -79.5t-191.5 78.5t-76.5 190.5t77.5 191.5t192.5 79.5t192 -78.5t77 -190.5zM514 257q0 85 -55.5 144t-136.5 59q-83 0 -136 -58t-53 -143t55 -143.5t136 -58.5q83 0 136.5 58t53.5 142z" />
    <glyph glyph-name="p" unicode="p" horiz-adv-x="664" 
d="M608 259q0 -122 -74 -196t-173 -74q-122 0 -198 110v-259h-77v677h77v-104q78 115 198 115q99 0 173 -73.5t74 -195.5zM529 258q0 90 -53 145.5t-129 55.5q-75 0 -131 -56.5t-56 -143.5q0 -88 56 -144.5t131 -56.5q78 0 130 54t52 146z" />
    <glyph glyph-name="q" unicode="q" horiz-adv-x="664" 
d="M578 -160h-77v264q-78 -115 -198 -115q-99 0 -173 73.5t-74 195.5t74 196t173 74q122 0 198 -110v99h77v-677zM504 259q0 87 -56 143.5t-131 56.5q-78 0 -130 -54t-52 -146q0 -90 53 -145.5t129 -55.5q75 0 131 56.5t56 144.5z" />
    <glyph glyph-name="r" unicode="r" horiz-adv-x="405" 
d="M163 206v-206h-77v517h77v-135q30 67 85 107t126 37v-83h-6q-89 0 -147 -62t-58 -175z" />
    <glyph glyph-name="s" unicode="s" horiz-adv-x="498" 
d="M441 145q0 -72 -52 -113.5t-132 -41.5q-56 0 -113.5 20.5t-100.5 55.5l39 55q88 -66 179 -66q47 0 77 22.5t30 59.5v2q0 35 -32.5 54t-96.5 37q-39 11 -62 20t-52 25.5t-43 41.5t-14 59v2q0 66 49.5 107t126.5 41q100 0 186 -57l-35 -58q-77 50 -153 50q-45 0 -72.5 -21
t-27.5 -54v-2q0 -14 8 -26t18 -20t31.5 -17t34.5 -13t41 -13q29 -9 48.5 -16t44 -19.5t39 -27t24.5 -36.5t10 -49v-2z" />
    <glyph glyph-name="t" unicode="t" horiz-adv-x="404" 
d="M190 449v-302q0 -86 87 -86q38 0 75 18v-66q-42 -22 -93 -22q-67 0 -106.5 35.5t-39.5 110.5v312h-72v68h72v156h77v-156h164v-68h-164z" />
    <glyph glyph-name="u" unicode="u" horiz-adv-x="616" 
d="M453 221v296h76v-517h-76v90q-63 -101 -177 -101q-92 0 -145 56.5t-53 150.5v321h77v-302q0 -73 37.5 -114.5t105.5 -41.5q67 0 111 45t44 117z" />
    <glyph glyph-name="v" unicode="v" horiz-adv-x="587" 
d="M294 88l175 429h83l-225 -521h-68l-224 521h85z" />
    <glyph glyph-name="w" unicode="w" horiz-adv-x="861" 
d="M463 519l140 -417l136 415h80l-182 -521h-67l-139 408l-140 -408h-68l-181 521h82l136 -415l139 417h64z" />
    <glyph glyph-name="x" unicode="x" horiz-adv-x="574" 
d="M331 265l204 -265h-89l-160 211l-161 -211h-86l203 263l-195 254h88l153 -200l153 200h86z" />
    <glyph glyph-name="y" unicode="y" horiz-adv-x="591" 
d="M555 517l-217 -534q-33 -79 -73 -112.5t-99 -33.5q-56 0 -110 26l26 61q37 -19 81 -19q35 0 59 21.5t47 75.5l-235 515h85l188 -431l166 431h82z" />
    <glyph glyph-name="z" unicode="z" horiz-adv-x="556" 
d="M399 452h-331v65h436v-49l-344 -403h344v-65h-448v49z" />
    <glyph glyph-name="braceleft" unicode="{" horiz-adv-x="483" 
d="M428 664q-100 -26 -128 -57.5t-28 -103.5q0 -10 0.5 -37t0.5 -38q0 -60 -26.5 -92.5t-77.5 -48.5q53 -17 78.5 -49t25.5 -92q0 -11 -0.5 -38t-0.5 -37q0 -72 28 -103.5t128 -57.5l-12 -51q-127 23 -172 70t-45 132q0 7 0.5 37t0.5 39q0 61 -26.5 90.5t-91.5 29.5h-26v60
h26q65 0 91.5 29.5t26.5 90.5q0 9 -0.5 39t-0.5 37q0 85 45 132t172 70z" />
    <glyph glyph-name="bar" unicode="|" horiz-adv-x="303" 
d="M184 -128h-65v926h65v-926z" />
    <glyph glyph-name="braceright" unicode="}" horiz-adv-x="483" 
d="M54 -90q101 26 129 57.5t28 103.5q0 10 -0.5 37t-0.5 38q0 60 26.5 92.5t77.5 48.5q-53 17 -78.5 49t-25.5 92q0 11 0.5 38t0.5 37q0 72 -28 103.5t-129 57.5l13 51q127 -23 172 -70t45 -132q0 -7 -0.5 -37t-0.5 -39q0 -61 26.5 -90.5t90.5 -29.5h26v-60h-26
q-64 0 -90.5 -29.5t-26.5 -90.5q0 -9 0.5 -39t0.5 -37q0 -85 -45 -132t-172 -70z" />
    <glyph glyph-name="asciitilde" unicode="~" horiz-adv-x="473" 
d="M400 352q-15 -57 -36.5 -81.5t-57.5 -24.5q-24 0 -71 20.5t-63 20.5q-19 0 -29.5 -10.5t-22.5 -39.5l-47 13q15 57 37 81.5t58 24.5q23 0 70.5 -20.5t63.5 -20.5q19 0 29.5 10.5t22.5 39.5z" />
    <glyph glyph-name="Euro" unicode="&#x20ac;" horiz-adv-x="790" 
d="M432 705l319 -705h-85l-82 185h-381l-83 -185h-81l319 705h74zM553 256l-159 357l-160 -357h319zM528 762h-90v95h90v-95zM352 762h-90v95h90v-95z" />
    <glyph glyph-name="NameMe.129" horiz-adv-x="790" 
d="M346 680q-55 29 -55 87q0 41 31 70.5t73 29.5t73 -29.5t31 -70.5q0 -58 -55 -87l307 -680h-85l-82 185h-381l-83 -185h-81zM457 767q0 25 -18.5 43.5t-43.5 18.5t-43.5 -18.5t-18.5 -43.5t18.5 -43.5t43.5 -18.5t43.5 18.5t18.5 43.5zM553 256l-159 357l-160 -357h319z
" />
    <glyph glyph-name="quotesinglbase" unicode="&#x201a;" horiz-adv-x="738" 
d="M371 -9q-133 17 -218 117.5t-85 240.5q0 152 100.5 257.5t253.5 105.5q89 0 152 -28t121 -83l-54 -58q-101 96 -220 96q-116 0 -193.5 -82.5t-77.5 -205.5t78 -206.5t193 -83.5q68 0 120 25t106 76l52 -51q-57 -58 -118.5 -88.5t-145.5 -34.5l-66 -143l-75 34z" />
    <glyph glyph-name="florin" unicode="&#x192;" horiz-adv-x="670" 
d="M605 700v-72h-427v-239h382v-72h-382v-245h432v-72h-511v700h506zM359 762h-62l95 145l80 -37z" />
    <glyph glyph-name="quotedblbase" unicode="&#x201e;" horiz-adv-x="790" 
d="M614 139v561h77v-700h-63l-452 574v-574h-77v700h74zM559 867q-15 -56 -37 -80.5t-58 -24.5q-24 0 -71 20t-63 20q-19 0 -29.5 -10.5t-22.5 -38.5l-47 13q15 56 37 80.5t58 24.5q24 0 71 -20t63 -20q19 0 29.5 10.5t22.5 38.5z" />
    <glyph glyph-name="ellipsis" unicode="&#x2026;" horiz-adv-x="850" 
d="M782 351q0 -149 -101 -256t-257 -107t-256 106t-100 255t101 256t257 107t256 -106t100 -255zM700 349q0 121 -78.5 205.5t-197.5 84.5t-196.5 -83.5t-77.5 -204.5t78.5 -205.5t197.5 -84.5t196.5 83.5t77.5 204.5zM558 762h-90v95h90v-95zM382 762h-90v95h90v-95z" />
    <glyph glyph-name="dagger" unicode="&#x2020;" horiz-adv-x="759" 
d="M671 700v-401q0 -150 -79 -230t-213 -80q-133 0 -212 79.5t-79 224.5v407h79v-402q0 -113 56.5 -174.5t157.5 -61.5q99 0 155 59t56 172v407h79zM512 759h-90v95h90v-95zM336 759h-90v95h90v-95z" />
    <glyph glyph-name="daggerdbl" unicode="&#x2021;" horiz-adv-x="579" 
d="M273 456q-74 0 -157 -38l-23 63q94 43 188 43q106 0 163 -53t57 -155v-316h-74v78q-68 -89 -187 -89q-78 0 -135.5 43t-57.5 119q0 81 60 124.5t161 43.5q81 0 159 -22v18q0 69 -40 105t-114 36zM276 262q-72 0 -111.5 -29t-39.5 -79q0 -48 37.5 -76t92.5 -28
q72 0 122.5 39.5t50.5 100.5v50q-76 22 -152 22zM310 595h-62l95 145l80 -37z" />
    <glyph glyph-name="circumflex" unicode="&#x2c6;" horiz-adv-x="579" 
d="M273 456q-74 0 -157 -38l-23 63q94 43 188 43q106 0 163 -53t57 -155v-316h-74v78q-68 -89 -187 -89q-78 0 -135.5 43t-57.5 119q0 81 60 124.5t161 43.5q81 0 159 -22v18q0 69 -40 105t-114 36zM276 262q-72 0 -111.5 -29t-39.5 -79q0 -48 37.5 -76t92.5 -28
q72 0 122.5 39.5t50.5 100.5v50q-76 22 -152 22zM261 595l-113 108l80 37l95 -145h-62z" />
    <glyph glyph-name="perthousand" unicode="&#x2030;" horiz-adv-x="579" 
d="M273 456q-74 0 -157 -38l-23 63q94 43 188 43q106 0 163 -53t57 -155v-316h-74v78q-68 -89 -187 -89q-78 0 -135.5 43t-57.5 119q0 81 60 124.5t161 43.5q81 0 159 -22v18q0 69 -40 105t-114 36zM276 262q-72 0 -111.5 -29t-39.5 -79q0 -48 37.5 -76t92.5 -28
q72 0 122.5 39.5t50.5 100.5v50q-76 22 -152 22zM290 662l-75 -67h-64l106 131h68l106 -131h-66z" />
    <glyph glyph-name="Scaron" unicode="&#x160;" horiz-adv-x="579" 
d="M273 456q-74 0 -157 -38l-23 63q94 43 188 43q106 0 163 -53t57 -155v-316h-74v78q-68 -89 -187 -89q-78 0 -135.5 43t-57.5 119q0 81 60 124.5t161 43.5q81 0 159 -22v18q0 69 -40 105t-114 36zM276 262q-72 0 -111.5 -29t-39.5 -79q0 -48 37.5 -76t92.5 -28
q72 0 122.5 39.5t50.5 100.5v50q-76 22 -152 22zM424 595h-90v95h90v-95zM248 595h-90v95h90v-95z" />
    <glyph glyph-name="guilsinglleft" unicode="&#x2039;" horiz-adv-x="579" 
d="M273 456q-74 0 -157 -38l-23 63q94 43 188 43q106 0 163 -53t57 -155v-316h-74v78q-68 -89 -187 -89q-78 0 -135.5 43t-57.5 119q0 81 60 124.5t161 43.5q81 0 159 -22v18q0 69 -40 105t-114 36zM276 262q-72 0 -111.5 -29t-39.5 -79q0 -48 37.5 -76t92.5 -28
q72 0 122.5 39.5t50.5 100.5v50q-76 22 -152 22zM456 700q-15 -56 -37 -80.5t-58 -24.5q-24 0 -71 20t-63 20q-19 0 -29.5 -10.5t-22.5 -38.5l-47 13q15 56 37 80.5t58 24.5q24 0 71 -20t63 -20q19 0 29.5 10.5t22.5 38.5z" />
    <glyph glyph-name="OE" unicode="&#x152;" horiz-adv-x="579" 
d="M273 456q-74 0 -157 -38l-23 63q94 43 188 43q106 0 163 -53t57 -155v-316h-74v78q-68 -89 -187 -89q-78 0 -135.5 43t-57.5 119q0 81 60 124.5t161 43.5q81 0 159 -22v18q0 69 -40 105t-114 36zM276 262q-72 0 -111.5 -29t-39.5 -79q0 -48 37.5 -76t92.5 -28
q72 0 122.5 39.5t50.5 100.5v50q-76 22 -152 22zM395 693q0 -41 -31 -70.5t-73 -29.5t-73 29.5t-31 70.5t31 70.5t73 29.5t73 -29.5t31 -70.5zM353 693q0 25 -18 43.5t-44 18.5t-44 -18.5t-18 -43.5t18 -43.5t44 -18.5t44 18.5t18 43.5z" />
    <glyph glyph-name="NameMe.141" horiz-adv-x="571" 
d="M271 -7q-94 16 -155.5 91t-61.5 173q0 112 76.5 191.5t188.5 79.5q120 0 207 -92l-51 -54q-74 78 -157 78q-78 0 -131.5 -58.5t-53.5 -142.5q0 -85 54.5 -143.5t135.5 -58.5q86 0 158 77l49 -46q-85 -94 -196 -100l-66 -143l-75 34z" />
    <glyph glyph-name="Zcaron" unicode="&#x17d;" horiz-adv-x="592" 
d="M132 230q8 -81 59.5 -128t122.5 -47q93 0 163 73l48 -43q-87 -97 -213 -97q-109 0 -183.5 75.5t-74.5 194.5q0 113 71 191.5t177 78.5q111 0 176 -78t65 -196q0 -15 -1 -24h-410zM132 287h333q-6 76 -49 126t-116 50q-67 0 -113.5 -50t-54.5 -126zM316 595h-62l95 145
l80 -37z" />
    <glyph glyph-name="NameMe.143" horiz-adv-x="592" 
d="M132 230q8 -81 59.5 -128t122.5 -47q93 0 163 73l48 -43q-87 -97 -213 -97q-109 0 -183.5 75.5t-74.5 194.5q0 113 71 191.5t177 78.5q111 0 176 -78t65 -196q0 -15 -1 -24h-410zM132 287h333q-6 76 -49 126t-116 50q-67 0 -113.5 -50t-54.5 -126zM276 595l-113 108
l80 37l95 -145h-62z" />
    <glyph glyph-name="NameMe.144" horiz-adv-x="592" 
d="M132 230q8 -81 59.5 -128t122.5 -47q93 0 163 73l48 -43q-87 -97 -213 -97q-109 0 -183.5 75.5t-74.5 194.5q0 113 71 191.5t177 78.5q111 0 176 -78t65 -196q0 -15 -1 -24h-410zM132 287h333q-6 76 -49 126t-116 50q-67 0 -113.5 -50t-54.5 -126zM298 662l-75 -67h-64
l106 131h68l106 -131h-66z" />
    <glyph glyph-name="quoteleft" unicode="&#x2018;" horiz-adv-x="592" 
d="M132 230q8 -81 59.5 -128t122.5 -47q93 0 163 73l48 -43q-87 -97 -213 -97q-109 0 -183.5 75.5t-74.5 194.5q0 113 71 191.5t177 78.5q111 0 176 -78t65 -196q0 -15 -1 -24h-410zM132 287h333q-6 76 -49 126t-116 50q-67 0 -113.5 -50t-54.5 -126zM432 595h-90v95h90v-95
zM256 595h-90v95h90v-95z" />
    <glyph glyph-name="quoteright" unicode="&#x2019;" horiz-adv-x="263" 
d="M170 0h-77v517h77v-517zM162 595h-62l95 145l80 -37z" />
    <glyph glyph-name="quotedblleft" unicode="&#x201c;" horiz-adv-x="263" 
d="M170 0h-77v517h77v-517zM102 595l-113 108l80 37l95 -145h-62z" />
    <glyph glyph-name="quotedblright" unicode="&#x201d;" horiz-adv-x="263" 
d="M170 0h-77v517h77v-517zM130 662l-75 -67h-64l106 131h68l106 -131h-66z" />
    <glyph glyph-name="bullet" unicode="&#x2022;" horiz-adv-x="263" 
d="M170 0h-77v517h77v-517zM264 595h-90v95h90v-95zM88 595h-90v95h90v-95z" />
    <glyph glyph-name="endash" unicode="&#x2013;" horiz-adv-x="616" 
d="M163 296v-296h-77v517h77v-90q61 101 177 101q92 0 145 -56.5t53 -150.5v-321h-77v302q0 73 -37.5 114.5t-105.5 41.5q-67 0 -111 -45t-44 -117zM476 700q-15 -56 -37 -80.5t-58 -24.5q-24 0 -71 20t-63 20q-19 0 -29.5 -10.5t-22.5 -38.5l-47 13q15 56 37 80.5t58 24.5
q24 0 71 -20t63 -20q19 0 29.5 10.5t22.5 38.5z" />
    <glyph glyph-name="emdash" unicode="&#x2014;" horiz-adv-x="646" 
d="M593 259q0 -112 -78 -191.5t-193 -79.5t-191.5 78.5t-76.5 190.5t77.5 191.5t192.5 79.5t192 -78.5t77 -190.5zM514 257q0 85 -55.5 144t-136.5 59q-83 0 -136 -58t-53 -143t55 -143.5t136 -58.5q83 0 136.5 58t53.5 142zM355 595h-62l95 145l80 -37z" />
    <glyph glyph-name="tilde" unicode="&#x2dc;" horiz-adv-x="646" 
d="M593 259q0 -112 -78 -191.5t-193 -79.5t-191.5 78.5t-76.5 190.5t77.5 191.5t192.5 79.5t192 -78.5t77 -190.5zM514 257q0 85 -55.5 144t-136.5 59q-83 0 -136 -58t-53 -143t55 -143.5t136 -58.5q83 0 136.5 58t53.5 142zM292 595l-113 108l80 37l95 -145h-62z" />
    <glyph glyph-name="trademark" unicode="&#x2122;" horiz-adv-x="646" 
d="M593 259q0 -112 -78 -191.5t-193 -79.5t-191.5 78.5t-76.5 190.5t77.5 191.5t192.5 79.5t192 -78.5t77 -190.5zM514 257q0 85 -55.5 144t-136.5 59q-83 0 -136 -58t-53 -143t55 -143.5t136 -58.5q83 0 136.5 58t53.5 142zM322 662l-75 -67h-64l106 131h68l106 -131h-66z
" />
    <glyph glyph-name="scaron" unicode="&#x161;" horiz-adv-x="646" 
d="M593 259q0 -112 -78 -191.5t-193 -79.5t-191.5 78.5t-76.5 190.5t77.5 191.5t192.5 79.5t192 -78.5t77 -190.5zM514 257q0 85 -55.5 144t-136.5 59q-83 0 -136 -58t-53 -143t55 -143.5t136 -58.5q83 0 136.5 58t53.5 142zM456 595h-90v95h90v-95zM280 595h-90v95h90v-95z
" />
    <glyph glyph-name="guilsinglright" unicode="&#x203a;" horiz-adv-x="646" 
d="M593 259q0 -112 -78 -191.5t-193 -79.5t-191.5 78.5t-76.5 190.5t77.5 191.5t192.5 79.5t192 -78.5t77 -190.5zM514 257q0 85 -55.5 144t-136.5 59q-83 0 -136 -58t-53 -143t55 -143.5t136 -58.5q83 0 136.5 58t53.5 142zM487 700q-15 -56 -37 -80.5t-58 -24.5
q-24 0 -71 20t-63 20q-19 0 -29.5 -10.5t-22.5 -38.5l-47 13q15 56 37 80.5t58 24.5q24 0 71 -20t63 -20q19 0 29.5 10.5t22.5 38.5z" />
    <glyph glyph-name="oe" unicode="&#x153;" horiz-adv-x="616" 
d="M453 221v296h76v-517h-76v90q-63 -101 -177 -101q-92 0 -145 56.5t-53 150.5v321h77v-302q0 -73 37.5 -114.5t105.5 -41.5q67 0 111 45t44 117zM328 591h-62l95 145l80 -37z" />
    <glyph glyph-name="NameMe.157" horiz-adv-x="616" 
d="M453 221v296h76v-517h-76v90q-63 -101 -177 -101q-92 0 -145 56.5t-53 150.5v321h77v-302q0 -73 37.5 -114.5t105.5 -41.5q67 0 111 45t44 117zM284 591l-113 108l80 37l95 -145h-62z" />
    <glyph glyph-name="zcaron" unicode="&#x17e;" horiz-adv-x="616" 
d="M453 221v296h76v-517h-76v90q-63 -101 -177 -101q-92 0 -145 56.5t-53 150.5v321h77v-302q0 -73 37.5 -114.5t105.5 -41.5q67 0 111 45t44 117zM308 662l-75 -67h-64l106 131h68l106 -131h-66z" />
    <glyph glyph-name="Ydieresis" unicode="&#x178;" horiz-adv-x="616" 
d="M453 221v296h76v-517h-76v90q-63 -101 -177 -101q-92 0 -145 56.5t-53 150.5v321h77v-302q0 -73 37.5 -114.5t105.5 -41.5q67 0 111 45t44 117zM442 595h-90v95h90v-95zM266 595h-90v95h90v-95z" />
    <glyph glyph-name="uni00A0" unicode="&#xa0;" horiz-adv-x="410" 
d="M226 520l6 -282h-54l6 282l-124 -8v55l123 -8l-9 141h62l-9 -141l123 8v-55z" />
    <glyph glyph-name="exclamdown" unicode="&#xa1;" horiz-adv-x="458" 
d="M386 553q0 -61 -47.5 -107t-109.5 -46t-109.5 46t-47.5 107t47.5 107t109.5 46t109.5 -46t47.5 -107zM328 553q0 41 -28.5 71t-70.5 30t-70.5 -30t-28.5 -71t28.5 -71t70.5 -30t70.5 30t28.5 71z" />
    <glyph glyph-name="cent" unicode="&#xa2;" horiz-adv-x="581" 
d="M533 186q-89 -101 -209 -101q-19 0 -29 2l-18 -93h-65l22 106q-78 28 -127 98t-49 156q0 111 77 191t188 80h13l15 81h65l-18 -90q71 -17 132 -84l-50 -52q-54 54 -99 67l-75 -391q16 -2 25 -2q84 1 154 77zM325 556h-6q-78 -1 -130.5 -58.5t-52.5 -141.5
q0 -62 31.5 -112t83.5 -74z" />
    <glyph glyph-name="sterling" unicode="&#xa3;" horiz-adv-x="644" 
d="M151 364v108q0 108 58.5 173t162.5 65q131 0 214 -108l-61 -48q-33 41 -68 62t-86 21q-67 0 -104 -44t-37 -121v-108h279v-69h-279v-225h355v-70h-518v46l84 21v228h-84v69h84z" />
    <glyph glyph-name="currency" unicode="&#xa4;" horiz-adv-x="632" 
d="M570 341q0 -45 -35.5 -75t-96.5 -40q74 -38 74 -102q0 -61 -50 -97.5t-134 -36.5q-136 0 -229 95l50 48q79 -77 181 -77q50 0 76.5 18.5t26.5 48.5q0 29 -35.5 50t-127.5 43q-114 27 -161 59t-47 84q0 45 35.5 75t96.5 40q-74 38 -74 102q0 61 50 97.5t134 36.5
q136 0 229 -95l-50 -48q-79 77 -181 77q-50 0 -76.5 -18.5t-26.5 -48.5q0 -29 35.5 -50t127.5 -43q114 -27 161 -59t47 -84zM496 333q0 27 -31.5 48t-110.5 40q-67 16 -109 16q-48 0 -78.5 -20.5t-30.5 -49.5q0 -27 31.5 -48t110.5 -40q65 -16 109 -16q48 0 78.5 20.5
t30.5 49.5z" />
    <glyph glyph-name="yen" unicode="&#xa5;" horiz-adv-x="478" 
d="M370 352q0 -54 -38.5 -92.5t-92.5 -38.5t-92.5 38.5t-38.5 92.5t38.5 92.5t92.5 38.5t92.5 -38.5t38.5 -92.5z" />
    <glyph glyph-name="brokenbar" unicode="&#xa6;" horiz-adv-x="510" 
d="M312 700h106v-700h-80v264h-11q-123 0 -201 57.5t-78 160.5q0 101 72.5 159.5t191.5 58.5z" />
    <glyph glyph-name="section" unicode="&#xa7;" horiz-adv-x="620" 
d="M519 556q0 -124 -139 -184q80 -18 131 -62t51 -117q0 -93 -72.5 -145t-197.5 -50v62q90 2 140.5 36t50.5 97q0 59 -50.5 94t-140.5 44v57q148 55 148 163q0 53 -36.5 85.5t-94.5 32.5q-65 0 -105.5 -45.5t-40.5 -121.5v-502h-77v501q0 106 61.5 171t165.5 65
q93 0 149.5 -51.5t56.5 -129.5z" />
    <glyph glyph-name="dieresis" unicode="&#xa8;" horiz-adv-x="830" 
d="M777 351q0 -149 -106 -256t-257 -107t-256 106t-105 255t106 256t257 107t256 -106t105 -255zM744 351q0 138 -94.5 234t-233.5 96q-140 0 -235 -97t-95 -235t94.5 -234t233.5 -96q140 0 235 97t95 235zM579 434q0 -44 -26 -72t-70 -38l115 -149h-68l-107 140h-95v-140
h-55v371h166q62 0 101 -30.5t39 -81.5zM522 431q0 31 -22.5 48t-62.5 17h-109v-132h106q40 0 64 17.5t24 49.5z" />
    <glyph glyph-name="copyright" unicode="&#xa9;" horiz-adv-x="830" 
d="M777 351q0 -149 -106 -256t-257 -107t-256 106t-105 255t106 256t257 107t256 -106t105 -255zM744 351q0 138 -94.5 234t-233.5 96q-140 0 -235 -97t-95 -235t94.5 -234t233.5 -96q140 0 235 97t95 235zM567 229q-64 -66 -148 -66q-79 0 -132.5 56t-53.5 136t53.5 136
t134.5 56t144 -60l-37 -40q-52 50 -108 50q-57 0 -94 -41t-37 -100t38.5 -100.5t93.5 -41.5q57 0 110 50z" />
    <glyph glyph-name="ordfeminine" unicode="&#xaa;" horiz-adv-x="690" 
d="M605 628l-110 -167h-6l-109 167v-236h-44v308h47l110 -169l109 169h46v-308h-43v236zM169 658v-266h-44v266h-99v42h242v-42h-99z" />
    <glyph glyph-name="guillemotleft" unicode="&#xab;" 
d="M243 595h-62l95 145l80 -37z" />
    <glyph glyph-name="logicalnot" unicode="&#xac;" 
d="M383 595h-90v95h90v-95zM207 595h-90v95h90v-95z" />
    <glyph glyph-name="registered" unicode="&#xae;" horiz-adv-x="1045" 
d="M209 185l-109 -185h-83l411 700h552v-72h-409v-239h364v-72h-364v-245h414v-72h-494v185h-282zM467 630l-218 -374h242v374h-24z" />
    <glyph glyph-name="macron" unicode="&#xaf;" horiz-adv-x="850" 
d="M782 351q0 -149 -101 -256t-257 -107q-128 0 -219 74l-62 -67h-83l99 108q-91 102 -91 246q0 149 101 256t257 107q128 0 219 -74l62 67h83l-99 -109q91 -100 91 -245zM595 580q-76 61 -171 61q-119 0 -197 -84t-78 -206q0 -108 63 -188zM701 349q0 108 -63 188
l-383 -417q76 -61 171 -61q119 0 197 84t78 206z" />
    <glyph glyph-name="plusminus" unicode="&#xb1;" horiz-adv-x="604" 
d="M546 191q0 -87 -67 -145t-173 -58q-81 0 -149 34t-114 92l58 50q83 -104 207 -104q70 0 114 36t44 95q0 60 -49.5 94t-137.5 34h-72v68h74q73 0 119.5 35t46.5 95q0 54 -41.5 88.5t-108.5 34.5q-106 0 -181 -100l-58 42q92 130 241 130q100 0 164 -53t64 -135
q0 -118 -122 -165q141 -46 141 -168z" />
    <glyph glyph-name="acute" unicode="&#xb4;" horiz-adv-x="686" 
d="M381 266v-88h205v-62h-205v-116h-76v116h-205v62h205v88h-205v62h181l-254 372h94l223 -342l225 342h90l-255 -372h182v-62h-205z" />
    <glyph glyph-name="uni00B5" unicode="&#xb5;" horiz-adv-x="850" 
d="M782 351q0 -83 -34 -157t-95 -124l172 -165v-6h-116l-132 123q-70 -34 -153 -34q-156 0 -256 106t-100 255t101 256t257 107t256 -106t100 -255zM700 349q0 121 -78.5 205.5t-197.5 84.5t-196.5 -83.5t-77.5 -204.5t78.5 -205.5t197.5 -84.5t196.5 83.5t77.5 204.5z" />
    <glyph glyph-name="uni00B9" unicode="&#xb9;" horiz-adv-x="830" 
d="M777 351q0 -149 -106 -256t-257 -107t-256 106t-105 255t106 256t257 107t256 -106t105 -255zM744 351q0 138 -94.5 234t-233.5 96q-140 0 -235 -97t-95 -235t94.5 -234t233.5 -96q140 0 235 97t95 235zM582 422q0 -60 -43.5 -92.5t-107.5 -32.5h-83v-125h-56v371h146
q66 0 105 -32t39 -89zM526 421q0 72 -93 72h-85v-146h84q43 0 68.5 19.5t25.5 54.5z" />
    <glyph glyph-name="guillemotright" unicode="&#xbb;" horiz-adv-x="390" 
d="M313 414h-49v38q-36 -44 -96 -44q-43 0 -75 24t-32 67q0 45 33.5 69.5t89.5 24.5q40 0 80 -11v5q0 34 -20.5 52.5t-57.5 18.5t-86 -22l-15 42q57 25 106 25q59 0 90.5 -29.5t31.5 -86.5v-173zM318 289h-260v47h260v-47zM264 520v24q-37 11 -76 11q-35 0 -55 -15t-20 -39
t18.5 -37.5t45.5 -13.5q36 0 61.5 19.5t25.5 50.5z" />
    <glyph glyph-name="onequarter" unicode="&#xbc;" horiz-adv-x="390" 
d="M342 557q0 -62 -42.5 -106t-105.5 -44q-62 0 -104 43.5t-42 104.5q0 62 42.5 106t105.5 44q62 0 104 -43.5t42 -104.5zM339 289h-288v47h288v-47zM288 555q0 43 -27 72.5t-67 29.5t-66 -29t-26 -71t27 -72t67 -30t66 29t26 71z" />
    <glyph glyph-name="onehalf" unicode="&#xbd;" horiz-adv-x="735" 
d="M559 515h163v-66h-163v-449h-76v449h-71v67h71v45q0 84 40 128.5t115 44.5q50 0 85 -13v-67q-44 13 -74 13q-90 0 -90 -110v-42zM191 515h164v-66h-163v-449h-77v449h-71v67h71v45q0 84 40.5 128.5t115.5 44.5q49 0 85 -13v-67q-45 13 -75 13q-90 0 -90 -110v-42z" />
    <glyph glyph-name="threequarters" unicode="&#xbe;" horiz-adv-x="953" 
d="M468 92q-99 -103 -226 -103q-81 0 -138 43t-57 119q0 80 59.5 124t157.5 44q75 0 153 -22v18q0 69 -38.5 105t-110.5 36q-69 0 -152 -38l-23 63q94 43 183 43q151 0 190 -111q31 53 83.5 84t114.5 31q111 0 176 -78t65 -196q0 -6 -2 -24h-409q8 -81 59.5 -128t121.5 -47
q93 0 163 73l48 -43q-85 -97 -213 -97q-62 0 -116 27.5t-89 76.5zM493 287h333q-6 76 -48.5 126t-115.5 50q-68 0 -114.5 -49.5t-54.5 -126.5zM416 241q-80 21 -144 21q-70 0 -108.5 -28.5t-38.5 -78.5q0 -48 36 -76t90 -28q104 0 186 92q-18 45 -21 98z" />
    <glyph glyph-name="questiondown" unicode="&#xbf;" horiz-adv-x="646" 
d="M593 259q0 -112 -78 -191.5t-193 -79.5q-90 0 -161 53l-45 -46h-77l79 85q-64 77 -64 177q0 112 77.5 191.5t192.5 79.5q93 0 161 -54l45 49h78l-80 -86q65 -75 65 -178zM438 419q-48 42 -116 42q-83 0 -137 -58t-54 -144q0 -70 39 -123zM515 257q0 71 -39 124l-268 -285
q50 -41 116 -41q84 0 137.5 58t53.5 144z" />
    <glyph glyph-name="Agrave" unicode="&#xc0;" horiz-adv-x="537" 
d="M246 700h92v-105h-92v105zM327 335q-96 -2 -147.5 -39.5t-51.5 -102.5q0 -56 40 -93.5t106 -37.5q101 0 181 94l51 -49q-96 -116 -234 -116q-101 0 -162.5 56t-61.5 143q0 89 57.5 140t150.5 64l9 108h51l16 -162z" />
    <glyph glyph-name="Aacute" unicode="&#xc1;" horiz-adv-x="271" 
d="M90 700h92v-105h-92v105zM181 0h-90v57l23 445h43l24 -445v-57z" />
    <glyph glyph-name="Atilde" unicode="&#xc3;" horiz-adv-x="998" 
d="M559 515h163v-66h-163v-449h-76v449h-71v67h71v45q0 84 40 128.5t115 44.5q50 0 85 -13v-67q-44 13 -74 13q-90 0 -90 -110v-42zM191 515h164v-66h-163v-449h-77v449h-71v67h71v45q0 84 40.5 128.5t115.5 44.5q49 0 85 -13v-67q-45 13 -75 13q-90 0 -90 -110v-42zM905 0
h-77v730h77v-730z" />
    <glyph glyph-name="Adieresis" unicode="&#xc4;" horiz-adv-x="514" 
d="M478 628q-40 10 -69 10q-39 0 -60 -21t-30 -69l-20 -108h144v-67h-156l-45 -244q-13 -70 -49 -102t-100 -32q-24 0 -52 4v66q19 -4 44 -4q65 0 78 76l44 236h-98v67h109l23 119q14 76 51 111t105 35q48 0 81 -11v-66z" />
    <glyph glyph-name="Aring" unicode="&#xc5;" horiz-adv-x="998" 
d="M910 630h-87v85h87v-85zM559 515h163v-66h-163v-449h-76v449h-71v67h71v45q0 84 40 128.5t115 44.5q50 0 85 -13v-67q-44 13 -74 13q-90 0 -90 -110v-42zM191 515h164v-66h-163v-449h-77v449h-71v67h71v45q0 84 40.5 128.5t115.5 44.5q49 0 85 -13v-67q-45 13 -75 13
q-90 0 -90 -110v-42zM905 0h-77v517h77v-517z" />
    <glyph glyph-name="Ccedilla" unicode="&#xc7;" horiz-adv-x="550" 
d="M433 476l58 -33l-135 -183l135 -185l-58 -34l-162 214v8zM210 476l59 -33l-135 -183l135 -185l-59 -34l-162 214v8z" />
    <glyph glyph-name="Egrave" unicode="&#xc8;" horiz-adv-x="550" 
d="M340 41l-59 33l135 184l-135 184l59 34l162 -213v-8zM117 41l-58 33l135 184l-135 184l58 34l162 -213v-8z" />
    <glyph glyph-name="Eacute" unicode="&#xc9;" horiz-adv-x="723" 
d="M647 0h-90v103h90v-103zM406 0h-89v103h89v-103zM166 0h-89v103h89v-103z" />
    <glyph glyph-name="Ecircumflex" unicode="&#xca;" horiz-adv-x="300" 
 />
    <glyph glyph-name="Edieresis" unicode="&#xcb;" horiz-adv-x="790" 
d="M432 705l319 -705h-85l-82 185h-381l-83 -185h-81l319 705h74zM553 256l-159 357l-160 -357h319zM363 762l-113 108l80 37l95 -145h-62z" />
    <glyph glyph-name="Igrave" unicode="&#xcc;" horiz-adv-x="790" 
d="M432 705l319 -705h-85l-82 185h-381l-83 -185h-81l319 705h74zM553 256l-159 357l-160 -357h319zM559 867q-15 -56 -37 -80.5t-58 -24.5q-24 0 -71 20t-63 20q-19 0 -29.5 -10.5t-22.5 -38.5l-47 13q15 56 37 80.5t58 24.5q24 0 71 -20t63 -20q19 0 29.5 10.5t22.5 38.5z
" />
    <glyph glyph-name="Iacute" unicode="&#xcd;" horiz-adv-x="850" 
d="M782 351q0 -149 -101 -256t-257 -107t-256 106t-100 255t101 256t257 107t256 -106t100 -255zM700 349q0 121 -78.5 205.5t-197.5 84.5t-196.5 -83.5t-77.5 -204.5t78.5 -205.5t197.5 -84.5t196.5 83.5t77.5 204.5zM589 867q-15 -56 -37 -80.5t-58 -24.5q-24 0 -71 20
t-63 20q-19 0 -29.5 -10.5t-22.5 -38.5l-47 13q15 56 37 80.5t58 24.5q24 0 71 -20t63 -20q19 0 29.5 10.5t22.5 38.5z" />
    <glyph glyph-name="Icircumflex" unicode="&#xce;" horiz-adv-x="1131" 
d="M1071 0h-631q-163 0 -267.5 99.5t-104.5 249.5t104.5 250.5t267.5 100.5h626v-72h-409v-239h364v-72h-364v-245h414v-72zM578 73v554h-138q-130 0 -210 -78.5t-80 -197.5t80 -198.5t210 -79.5h138z" />
    <glyph glyph-name="Idieresis" unicode="&#xcf;" horiz-adv-x="1049" 
d="M548 128q-32 -63 -93 -101.5t-136 -38.5q-112 0 -188.5 79t-76.5 190t77.5 191t190.5 80q75 0 135 -38t92 -101q30 64 85.5 101.5t126.5 37.5q110 0 174.5 -78t64.5 -196q0 -15 -1 -24h-409q8 -81 59 -128t122 -47q93 0 163 73l48 -43q-85 -97 -212 -97
q-72 0 -131.5 37.5t-90.5 102.5zM589 287h333q-6 76 -48.5 126t-115.5 50q-68 0 -114.5 -49.5t-54.5 -126.5zM511 257q0 85 -54.5 144t-135.5 59q-82 0 -135 -58t-53 -143q0 -84 54.5 -143t135.5 -59q82 0 135 57.5t53 142.5z" />
    <glyph glyph-name="Eth" unicode="&#xd0;" horiz-adv-x="528" 
d="M463 262h-398v77h398v-77z" />
    <glyph glyph-name="Ntilde" unicode="&#xd1;" horiz-adv-x="898" 
d="M833 262h-768v77h768v-77z" />
    <glyph glyph-name="Ograve" unicode="&#xd2;" horiz-adv-x="445" 
d="M394 670q-37 -13 -53 -34t-14 -53h36v-105h-91v90q0 60 26 92t84 45zM194 670q-37 -13 -53 -34t-14 -53h37v-105h-92v90q0 60 26 92t84 45z" />
    <glyph glyph-name="Oacute" unicode="&#xd3;" horiz-adv-x="445" 
d="M251 508q73 26 67 87h-36v105h91v-90q0 -60 -26 -92t-84 -45zM51 508q73 26 67 87h-36v105h92v-90q0 -60 -26.5 -92t-84.5 -45z" />
    <glyph glyph-name="Ocircumflex" unicode="&#xd4;" horiz-adv-x="245" 
d="M194 670q-37 -13 -53 -34t-14 -53h37v-105h-92v90q0 60 26 92t84 45z" />
    <glyph glyph-name="Otilde" unicode="&#xd5;" horiz-adv-x="245" 
d="M51 508q73 26 67 87h-36v105h92v-90q0 -60 -26.5 -92t-84.5 -45z" />
    <glyph glyph-name="Oslash" unicode="&#xd8;" horiz-adv-x="591" 
d="M555 517l-217 -534q-33 -79 -73 -112.5t-99 -33.5q-56 0 -110 26l26 61q37 -19 81 -19q35 0 59 21.5t47 75.5l-235 515h85l188 -431l166 431h82zM429 595h-90v95h90v-95zM253 595h-90v95h90v-95z" />
    <glyph glyph-name="Ugrave" unicode="&#xd9;" horiz-adv-x="716" 
d="M398 278v-278h-80v277l-291 423h96l236 -350l238 350h92zM491 759h-90v95h90v-95zM315 759h-90v95h90v-95z" />
    <glyph glyph-name="Uacute" unicode="&#xda;" horiz-adv-x="429" 
d="M399 758h76l-467 -856h-76z" />
    <glyph glyph-name="Ucircumflex" unicode="&#xdb;" horiz-adv-x="720" 
d="M139 408h-83v62h94q29 108 102.5 175t172.5 67q149 0 241 -137l-60 -43q-40 56 -81.5 82.5t-102.5 26.5q-65 0 -116 -47t-75 -124h257v-62h-270q-4 -24 -4 -57q0 -17 2 -51h272v-63h-259q22 -81 76.5 -129.5t127.5 -48.5q56 0 97.5 29t80.5 86l57 -40
q-46 -69 -102.5 -107.5t-135.5 -38.5q-105 0 -180.5 68t-102.5 181h-91v63h81q-2 16 -2 49q0 34 4 59z" />
    <glyph glyph-name="Udieresis" unicode="&#xdc;" horiz-adv-x="328" 
d="M210 476l59 -33l-135 -183l135 -185l-59 -34l-162 214v8z" />
    <glyph glyph-name="Yacute" unicode="&#xdd;" horiz-adv-x="328" 
d="M117 41l-58 33l135 184l-135 184l58 34l162 -213v-8z" />
    <glyph glyph-name="Thorn" unicode="&#xde;" horiz-adv-x="631" 
d="M543 630h-88v85h88v-85zM191 515h164v-66h-163v-449h-77v449h-71v67h71v45q0 84 40.5 128.5t115.5 44.5q49 0 85 -13v-67q-45 13 -75 13q-90 0 -90 -110v-42zM537 0h-76v517h76v-517z" />
    <glyph glyph-name="germandbls" unicode="&#xdf;" horiz-adv-x="631" 
d="M191 515h164v-66h-163v-449h-77v449h-71v67h71v45q0 84 40.5 128.5t115.5 44.5q49 0 85 -13v-67q-45 13 -75 13q-90 0 -90 -110v-42zM537 0h-76v730h76v-730z" />
    <glyph glyph-name="agrave" unicode="&#xe0;" horiz-adv-x="430" 
d="M360 133l-123 8l9 -141h-62l9 141l-123 -8v55l124 -8l-6 170l6 170l-124 -8v55l123 -8l-9 141h62l-9 -141l123 8v-55l-124 8l6 -170l-6 -170l124 8v-55z" />
    <glyph glyph-name="aacute" unicode="&#xe1;" horiz-adv-x="245" 
d="M169 248h-92v105h92v-105z" />
    <glyph glyph-name="acircumflex" unicode="&#xe2;" horiz-adv-x="245" 
d="M46 -87q73 26 67 87h-36v105h92v-90q0 -60 -26.5 -92t-84.5 -45z" />
    <glyph glyph-name="atilde" unicode="&#xe3;" horiz-adv-x="445" 
d="M246 -87q73 26 67 87h-36v105h91v-90q0 -60 -26 -92t-84 -45zM46 -87q73 26 67 87h-36v105h92v-90q0 -60 -26.5 -92t-84.5 -45z" />
    <glyph glyph-name="adieresis" unicode="&#xe4;" horiz-adv-x="1211" 
d="M369 530q0 -74 -44.5 -127t-114.5 -53q-69 0 -113.5 52.5t-44.5 125.5q0 74 45 127t115 53q69 0 113 -52.5t44 -125.5zM638 700h71l-513 -700h-72zM1158 172q0 -74 -44.5 -127t-114.5 -53q-69 0 -113 52.5t-44 125.5q0 74 44.5 127t114.5 53q69 0 113 -52t44 -126z
M781 172q0 -74 -44.5 -127t-114.5 -53q-69 0 -113 52.5t-44 125.5q0 74 44.5 127t114.5 53q69 0 113 -52t44 -126zM303 528q0 53 -27 88.5t-66 35.5q-41 0 -66 -35t-25 -87q0 -53 27 -88.5t66 -35.5q40 0 65.5 35t25.5 87zM1092 170q0 53 -27 88.5t-66 35.5q-40 0 -65.5 -35
t-25.5 -87q0 -53 27 -88.5t66 -35.5q41 0 66 35t25 87zM715 170q0 53 -27 88.5t-66 35.5q-40 0 -65.5 -35t-25.5 -87q0 -53 27 -88.5t66 -35.5q41 0 66 35t25 87z" />
    <glyph glyph-name="aring" unicode="&#xe5;" horiz-adv-x="790" 
d="M432 705l319 -705h-85l-82 185h-381l-83 -185h-81l319 705h74zM553 256l-159 357l-160 -357h319zM394 826l-75 -67h-64l106 131h68l106 -131h-66z" />
    <glyph glyph-name="ae" unicode="&#xe6;" horiz-adv-x="670" 
d="M605 700v-72h-427v-239h382v-72h-382v-245h432v-72h-511v700h506zM347 829l-75 -67h-64l106 131h68l106 -131h-66z" />
    <glyph glyph-name="ccedilla" unicode="&#xe7;" horiz-adv-x="790" 
d="M432 705l319 -705h-85l-82 185h-381l-83 -185h-81l319 705h74zM553 256l-159 357l-160 -357h319zM427 762h-62l95 145l80 -37z" />
    <glyph glyph-name="egrave" unicode="&#xe8;" horiz-adv-x="670" 
d="M605 700v-72h-427v-239h382v-72h-382v-245h432v-72h-511v700h506zM481 762h-90v95h90v-95zM305 762h-90v95h90v-95z" />
    <glyph glyph-name="eacute" unicode="&#xe9;" horiz-adv-x="670" 
d="M605 700v-72h-427v-239h382v-72h-382v-245h432v-72h-511v700h506zM340 762l-113 108l80 37l95 -145h-62z" />
    <glyph glyph-name="ecircumflex" unicode="&#xea;" horiz-adv-x="291" 
d="M106 700h79v-700h-79v700zM176 762h-62l95 145l80 -37z" />
    <glyph glyph-name="edieresis" unicode="&#xeb;" horiz-adv-x="291" 
d="M106 700h79v-700h-79v700zM145 829l-75 -67h-64l106 131h68l106 -131h-66z" />
    <glyph glyph-name="igrave" unicode="&#xec;" horiz-adv-x="291" 
d="M106 700h79v-700h-79v700zM279 762h-90v95h90v-95zM103 762h-90v95h90v-95z" />
    <glyph glyph-name="iacute" unicode="&#xed;" horiz-adv-x="291" 
d="M106 700h79v-700h-79v700zM115 762l-113 108l80 37l95 -145h-62z" />
    <glyph glyph-name="icircumflex" unicode="&#xee;" horiz-adv-x="850" 
d="M782 351q0 -149 -101 -256t-257 -107t-256 106t-100 255t101 256t257 107t256 -106t100 -255zM700 349q0 121 -78.5 205.5t-197.5 84.5t-196.5 -83.5t-77.5 -204.5t78.5 -205.5t197.5 -84.5t196.5 83.5t77.5 204.5zM461 762h-62l95 145l80 -37z" />
    <glyph glyph-name="idieresis" unicode="&#xef;" horiz-adv-x="850" 
d="M782 351q0 -149 -101 -256t-257 -107t-256 106t-100 255t101 256t257 107t256 -106t100 -255zM700 349q0 121 -78.5 205.5t-197.5 84.5t-196.5 -83.5t-77.5 -204.5t78.5 -205.5t197.5 -84.5t196.5 83.5t77.5 204.5zM424 829l-75 -67h-64l106 131h68l106 -131h-66z" />
    <glyph glyph-name="eth" unicode="&#xf0;" horiz-adv-x="967" 
d="M868 0h-767v750h767v-750zM859 -104h-6l-3 20l-10 -21h-2l-10 21l-3 -20h-6l6 34h1l13 -26l13 26h1zM806 -87q0 -18 -17 -18q-7 0 -12 5t-5 12q0 18 18 18q7 0 11.5 -5t4.5 -12zM758 -96l-1 -6q-3 -3 -10 -3q-18 0 -18 17q0 8 5.5 13t12.5 5t11 -3l-2 -5q-3 3 -9 3
q-12 0 -12 -12q0 -13 13 -13q4 0 10 4zM702 -71l-13 -19v-14h-6v14l-14 19l6 1l11 -15l9 14h7zM656 -104h-6v15h-16v-15h-6v33h6v-13h16v13h6v-33zM612 -82q0 -12 -17 -12v-10h-6v33q23 3 23 -11zM576 -104h-6l-4 8h-14l-3 -8h-6l15 34h2zM534 -104h-7l-8 11h-5v-11h-6v33
q23 3 23 -10q0 -7 -7 -10zM491 -101q-6 -4 -13 -4q-18 0 -18 17q0 8 5.5 13t13.5 5q6 0 12 -4l-2 -5q-4 4 -11 4q-12 0 -12 -13q0 -12 13 -12q2 0 6 2v7h-9v5h15v-15zM447 -87q0 -18 -17 -18q-7 0 -12 5t-5 12q0 18 18 18q7 0 11.5 -5t4.5 -12zM400 -82q0 -12 -17 -12v-10
h-6v33q23 3 23 -11zM364 -71l-13 -19v-14h-6v14l-14 19l6 1l11 -15l9 14h7zM323 -71v-5h-12v-28h-6v28h-12v5h30zM267 -71l-12 -34h-1l-11 23l-10 -23h-1l-12 34l6 1l7 -23l10 23h1l10 -23l7 22h6zM211 -71l-12 -34h-1l-11 23l-10 -23h-1l-12 34l6 1l7 -23l10 23h1l10 -23
l7 22h6zM155 -71l-12 -34h-1l-11 23l-10 -23h-1l-12 34l6 1l7 -23l10 23h1l10 -23l7 22h6zM716 -101q0 -4 -4 -4t-4 4t4 4t4 -4zM284 -101q0 -4 -4 -4t-4 4t4 4t4 -4zM559 686q0 8 -1 12q-2 -1 -17 -1t-18 1l-1 -12h2q4 9 10 9q3 0 3 -3v-23q-1 -5 -5 -5v-2h17v2l-4 2
q-1 1 -1 3v23q0 3 3 3t5.5 -2.5t3.5 -4.5l1 -2h2zM504 662v2q-6 -1 -6 5v21l6 5v2h-18v-1v-1l4 -2q1 -1 1 -3v-9h-17v9q1 5 5 5v1v1h-17v-2l4 -2q1 -1 1 -3v-21l-5 -5v-2h17v2q-5 0 -5 5v10h17v-10q-1 -5 -5 -5v-2h18zM439 664l-4 2q-1 1 -1 3v21q1 5 5 5v2h-29l-2 -10l2 -1
q3 8 9 8h4q4 0 4 -3v-10h-4l-6 5h-2v-13h2q0 6 6 6h4v-11q0 -3 -4 -3h-4q-3 0 -5.5 2.5t-3.5 4.5l-1 2l-2 -1l2 -11h30v2zM827 618v6h-685v-6h685zM696 540q0 15 -11.5 26.5t-25.5 11.5q-8 0 -15.5 -5.5t-7.5 -16.5q0 -16 11 -27t26 -11q8 0 15.5 5.5t7.5 16.5zM589 537
q0 12 -14 17q5 3 5 9q0 15 -21 15q-13 0 -13 -11q0 -6 5 -6q4 0 4 3q0 2 -1.5 3.5t-1.5 2.5q0 5 7 5q10 0 10 -12q0 -4 -2 -6q-16 2 -16 -6q0 -6 8 -6q6 0 11 5q6 -4 6 -15q0 -14 -12 -14t-12 9q0 3 3 3l1 -1q2 -1 4 -1q4 0 4 5t-7 5q-9 0 -9 -10q0 -13 16 -13q25 0 25 19z
M295 537q0 12 -14 17q5 3 5 9q0 15 -21 15q-13 0 -13 -11q0 -6 5 -6q4 0 4 3q0 2 -1.5 3.5t-1.5 2.5q0 5 7 5q10 0 10 -12q0 -4 -2 -6q-16 2 -16 -6q0 -6 8 -6q6 0 11 5q6 -4 6 -15q0 -14 -12 -14t-12 9q0 3 3 3l1 -1q2 -1 4 -1q4 0 4 5t-7 5q-9 0 -9 -10q0 -13 16 -13
q25 0 25 19zM820 522q-8 -1 -10 8l-7 35q-1 4 1 6t4 2h2l-1 3h-28l1 -3q7 1 9 -8l3 -15h-24l-3 15q-1 4 1 6t4 2h2l-1 3h-29l1 -3q8 1 10 -8l7 -35q1 -4 -1 -6t-4 -2h-2l1 -3h29l-1 3q-8 -1 -10 8l-3 16h24l3 -16q1 -4 -1 -6t-4 -2h-2l1 -3h29zM498 519l-1 3q-8 -1 -10 8
l-7 35q-1 4 1 6t4 2h2l-1 3h-45v-17h4q-1 13 13 13h4q5 0 6 -6l3 -16h-4q-4 0 -7 2t-4 4l-1 3h-3l5 -23h3q-1 11 8 11h4l3 -17q1 -4 -1 -6t-4 -2h-2l1 -3h29zM202 522q-8 -1 -10 8l-7 35q-1 4 1 6t4 2h2l-1 3h-27q-20 0 -20 -15q0 -13 19 -15l-9 -16q-2 -4 -5.5 -6t-6.5 -2
h-2l1 -3h19l12 23q2 3 5 3l3 -15q1 -4 -1 -6t-4 -2h-2l1 -3h29zM400 521q0 8 -13 9q-4 2 -5 14.5t-5.5 23t-18.5 10.5q-5 0 -9 -3.5t-4 -6.5q0 -5 5 -5q4 0 4 6t5 6t7 -8t4.5 -19.5t9.5 -17.5q-8 0 -14 -6.5t-9 -6.5q-5 0 -5 4q0 2 1 3t1 2q0 5 -5 5t-5 -7q0 -4 5 -8t10 -4
q10 0 15 6.5t10 6.5q4 -7 12 -7q4 0 4 3zM827 475v6h-685v-6h685zM827 378v62h-147v-62h36v28h11v-65h-14v-33h81v33h-14v65h11v-28h36zM648 406v34h-81v-34h11l-15 -23l-15 23h10v34h-62v-34h12l37 -46v-19h-14v-33h81v33h-15v20l37 45h14zM458 308v33h-14v65h14v34h-96
q-21 0 -34 -11.5t-13 -28.5q0 -18 13 -29t34 -11h30v-19h-15v-33h81zM283 308v33h-14v65h14v34h-141v-62h41v28h33v-20h-24v-24h24v-21h-33v28h-41v-61h141zM827 271v6h-685v-6h685zM728 192q0 15 -11.5 26.5t-25.5 11.5q-8 0 -15.5 -5.5t-7.5 -16.5q0 -16 11 -27t26 -11
q8 0 15.5 5.5t7.5 16.5zM203 217q-7 13 -18 13q-15 0 -14 -23q-7 23 -21 23q-12 0 -12 -12l3 -1q0 6 8 6q16 0 24 -33q2 -8 0.5 -11.5t-3.5 -3.5h-3l1 -4h28l-1 4q-7 -2 -10 9q-5 17 -5 25q0 13 9 13q5 0 12 -7zM823 171l-1 3q-8 -1 -10 8l-7 35q-1 4 1 6t4 2h2l-1 3h-45
v-17h4q-1 13 13 13h4q5 0 6 -6l3 -16h-4q-4 0 -7 2t-4 4l-1 3h-3l5 -23h3q-1 11 8 11h4l3 -17q1 -4 -1 -6t-4 -2h-2l1 -3h29zM621 225l-1 3h-29l1 -3q8 1 10 -9l5 -21q5 -20 -11 -20q-14 0 -20 22l-4 19q-1 5 1 7t4 2h2v3h-24l1 -3q9 1 11 -9l4 -19q5 -27 28 -27q24 0 19 24
l-5 22q-1 5 1 7t4 2h3zM522 174q-6 0 -9 10l-7 32q-1 4 1 6.5t5 2.5h2l-1 3h-14l-29 -42l-5 30q-1 4 1 6t4 2l2 1l-1 3h-21l1 -3q7 0 9 -9l8 -45l3 -1l30 44l6 -30q1 -5 -0.5 -7.5t-3.5 -2.5h-2l1 -3h21zM414 171l-1 4q-7 -2 -10 9l-8 31q-3 9 8 10l-1 3h-30q-25 0 -25 -22
q0 -15 11 -25t24 -10h32zM306 174q-8 -1 -10 8l-7 35q-1 4 1 6t4 2h2l-1 3h-27q-20 0 -20 -15q0 -13 19 -15l-9 -16q-2 -4 -5.5 -6t-6.5 -2h-2l1 -3h19l12 23q2 3 5 3l3 -15q1 -4 -1 -6t-4 -2h-2l1 -3h29zM827 127v6h-685v-6h685zM694 46v2q-6 1 -6 5v20l6 6v2h-10l-24 -26
v18q0 2 1.5 3.5t2.5 1.5l2 1v2h-15v-2q6 -1 6 -6v-28h3l25 28v-20l-5 -5v-2h14zM633 48l-4 2q-1 1 -1 3v21q1 5 5 5v2h-29l-2 -10l2 -1q3 8 9 8h4q4 0 4 -3v-10h-4l-6 5h-2v-13h2q0 6 6 6h4v-11q0 -3 -4 -3h-4q-3 0 -5.5 2.5t-3.5 4.5l-1 2l-2 -1l2 -11h30v2zM583 81h-15v-2
l2 -5l-9 -19l-5 10l4 8l6 6v2h-26l1 -2q3 0 7 -6l3 -5l-7 -13l-8 18l2 6v2h-13v-2q4 -1 6 -6l13 -27h1q1 -1 1 0l8 16l9 -16h1l12 27q1 3 3 4.5t3 1.5h1v2zM480 79v2h-15v-2l1 -5l-6 -9l-6 9l3 5v2h-15v-2q5 0 8 -5l8 -12v-8l-5 -6v-2h17v2q-5 0 -5 6v8l8 12zM425 64
q0 18 -20 18t-20 -18q0 -19 20 -19t20 19zM364 46v2q-5 0 -5 5v20l5 6v2h-18q-13 0 -13 -9q0 -5 9 -9l-7 -10l-8 -5v-2h11l7 12q3 4 7 4v-9l-5 -5v-2h17zM309 46v2q-6 1 -6 6v20l6 5v2h-18v-2q6 0 6 -5v-9q-2 0 -4 2l-8 8l1 4v2h-14v-2q5 -1 8 -4l10 -9l-13 -13l-7 -5v-2h17
v2l-2 5l8 8q2 2 4 2v-9q0 -3 -1.5 -4.5t-3.5 -1.5h-1v-2h18zM606 -83q0 8 -11 7v-13q11 0 11 6zM525 -82q0 8 -11 6v-12q11 -1 11 6zM394 -83q0 8 -11 7v-13q11 0 11 6zM564 -92l-5 12l-5 -12h10zM800 -88q0 13 -11 13t-11 -12q0 -13 11 -13t11 12zM441 -88q0 13 -11 13
t-11 -12q0 -13 11 -13t11 12zM176 548h-5q-15 0 -15 15q0 9 8 9t9 -5zM566 553q-3 -4 -7 -4t-4 2q0 3 4 3q5 0 7 -1zM272 553q-3 -4 -7 -4t-4 2q0 3 4 3q5 0 7 -1zM684 535q0 -13 -11 -13q-9 0 -17 11.5t-8 26.5q0 14 11 14q9 0 17 -12t8 -27zM392 384h-11q-13 0 -13 11
t13 11h11v-22zM280 200h-5q-15 0 -15 15q0 9 8 9t9 -5zM716 187q0 -13 -11 -13q-9 0 -17 11.5t-8 26.5q0 14 11 14q9 0 17 -12t8 -27zM393 182q0 -7 -4 -7h-5q-11 0 -18.5 10t-7.5 22q0 17 14 17h6q4 -1 6 -7zM553 79q5 0 0 -9q-5 9 0 9zM352 64h-3q-8 0 -8 8q0 6 7 6
q4 0 4 -4v-10zM417 64q0 -17 -12 -17t-12 17q0 16 12 16t12 -16z" />
    <glyph glyph-name="ntilde" unicode="&#xf1;" horiz-adv-x="850" 
d="M782 351q0 -149 -101 -256t-257 -107t-256 106t-100 255t101 256t257 107t256 -106t100 -255zM700 349q0 121 -78.5 205.5t-197.5 84.5t-196.5 -83.5t-77.5 -204.5t78.5 -205.5t197.5 -84.5t196.5 83.5t77.5 204.5zM389 762l-113 108l80 37l95 -145h-62z" />
    <glyph glyph-name="ograve" unicode="&#xf2;" horiz-adv-x="759" 
d="M671 700v-401q0 -150 -79 -230t-213 -80q-133 0 -212 79.5t-79 224.5v407h79v-402q0 -113 56.5 -174.5t157.5 -61.5q99 0 155 59t56 172v407h79zM405 757h-62l95 145l80 -37z" />
    <glyph glyph-name="oacute" unicode="&#xf3;" horiz-adv-x="759" 
d="M671 700v-401q0 -150 -79 -230t-213 -80q-133 0 -212 79.5t-79 224.5v407h79v-402q0 -113 56.5 -174.5t157.5 -61.5q99 0 155 59t56 172v407h79zM378 826l-75 -67h-64l106 131h68l106 -131h-66z" />
    <glyph glyph-name="ocircumflex" unicode="&#xf4;" horiz-adv-x="759" 
d="M671 700v-401q0 -150 -79 -230t-213 -80q-133 0 -212 79.5t-79 224.5v407h79v-402q0 -113 56.5 -174.5t157.5 -61.5q99 0 155 59t56 172v407h79zM354 757l-113 108l80 37l95 -145h-62z" />
    <glyph glyph-name="otilde" unicode="&#xf5;" horiz-adv-x="263" 
d="M170 0h-77v517h77v-517z" />
    <glyph glyph-name="odieresis" unicode="&#xf6;" 
d="M249 662l-75 -67h-64l106 131h68l106 -131h-66z" />
    <glyph glyph-name="divide" unicode="&#xf7;" 
d="M414 700q-15 -56 -37 -80.5t-58 -24.5q-24 0 -71 20t-63 20q-19 0 -29.5 -10.5t-22.5 -38.5l-47 13q15 56 37 80.5t58 24.5q24 0 71 -20t63 -20q19 0 29.5 10.5t22.5 38.5z" />
    <glyph glyph-name="oslash" unicode="&#xf8;" 
d="M408 600h-316v67h316v-67z" />
    <glyph glyph-name="ugrave" unicode="&#xf9;" 
d="M398 726q-4 -62 -44.5 -97.5t-103.5 -35.5t-103.5 35.5t-44.5 97.5h56q20 -69 92 -69t92 69h56z" />
    <glyph glyph-name="uacute" unicode="&#xfa;" 
d="M297 595h-94v96h94v-96z" />
    <glyph glyph-name="ucircumflex" unicode="&#xfb;" 
d="M354 693q0 -41 -31 -70.5t-73 -29.5t-73 29.5t-31 70.5t31 70.5t73 29.5t73 -29.5t31 -70.5zM312 693q0 25 -18 43.5t-44 18.5t-44 -18.5t-18 -43.5t18 -43.5t44 -18.5t44 18.5t18 43.5z" />
    <glyph glyph-name="udieresis" unicode="&#xfc;" 
d="M240 10h61l-76 -165l-75 34z" />
    <glyph glyph-name="yacute" unicode="&#xfd;" 
d="M309 595h-61l95 145l75 -37zM146 595h-62l95 145l75 -37z" />
    <glyph glyph-name="thorn" unicode="&#xfe;" 
d="M257 10q-6 -26 -6 -51q0 -76 109 -82v-41q-85 -4 -131 25.5t-46 82.5q0 33 14 66h60z" />
    <glyph glyph-name="ydieresis" unicode="&#xff;" 
d="M251 659l75 67h64l-106 -131h-68l-106 131h66z" />
  </font>
</defs></svg>
