<?xml version="1.0" encoding="UTF-8"?>
<svg width="23px" height="14px" viewBox="0 0 23 14" version="1.1" xmlns="http://www.w3.org/2000/svg" xmlns:xlink="http://www.w3.org/1999/xlink">
    <!-- Generator: Sketch 47.1 (45422) - http://www.bohemiancoding.com/sketch -->
    <title>Right Arrow Icon</title>
    <desc>Created with Sketch.</desc>
    <defs></defs>
    <g id="Gentech-Homepage-Wireframe" stroke="none" stroke-width="1" fill="none" fill-rule="evenodd">
        <g id="Genentech-US-Homepage---My-Dashboard" transform="translate(-1314.000000, -901.000000)" fill-rule="nonzero" fill="#48C2C5">
            <g id="Quick-Links" transform="translate(968.000000, 784.000000)">
                <path d="M363.844282,128.135441 C363.634401,127.928015 363.302654,127.934706 363.079233,128.135441 L358.042096,132.578382 L358.042096,113.535294 C358.042096,113.240882 357.798364,113 357.500468,113 C357.202573,113 356.958841,113.240882 356.958841,113.535294 L356.958841,132.578382 L351.921704,128.142132 C351.691512,127.948088 351.373306,127.928015 351.163425,128.135441 C350.953544,128.342868 350.940004,128.704191 351.156655,128.898235 C351.156655,128.898235 357.046855,134.197647 357.114559,134.251176 C357.182262,134.304706 357.304128,134.411765 357.500468,134.411765 C357.696808,134.411765 357.832215,134.304706 357.886378,134.251176 C357.940541,134.197647 363.844282,128.898235 363.844282,128.898235 C363.945837,128.797868 364,128.657353 364,128.516838 C364,128.376324 363.945837,128.2425 363.844282,128.135441 Z" id="Right-Arrow-Icon" transform="translate(357.500000, 123.705882) rotate(-90.000000) translate(-357.500000, -123.705882) "></path>
            </g>
        </g>
    </g>
</svg>